[?25l[?7l[0m[31m[1m            .-/+oossssoo+/-.
        `:+ssssssssssssssssss+:`
      -+ssssssssssssssssssyyssss+-
    .ossssssssssssssssss[37m[0m[1mdMMMNy[0m[31m[1msssso.
   /sssssssssss[37m[0m[1mhdmmNNmmyNMMMMh[0m[31m[1mssssss/
  +sssssssss[37m[0m[1mhm[0m[31m[1myd[37m[0m[1mMMMMMMMNddddy[0m[31m[1mssssssss+
 /ssssssss[37m[0m[1mhNMMM[0m[31m[1myh[37m[0m[1mhyyyyhmNMMMNh[0m[31m[1mssssssss/
.ssssssss[37m[0m[1mdMMMNh[0m[31m[1mssssssssss[37m[0m[1mhNMMMd[0m[31m[1mssssssss.
+ssss[37m[0m[1mhhhyNMMNy[0m[31m[1mssssssssssss[37m[0m[1myNMMMy[0m[31m[1msssssss+
oss[37m[0m[1myNMMMNyMMh[0m[31m[1mssssssssssssss[37m[0m[1mhmmmh[0m[31m[1mssssssso
oss[37m[0m[1myNMMMNyMMh[0m[31m[1msssssssssssssshmmmh[0m[31m[1mssssssso
+ssss[37m[0m[1mhhhyNMMNy[0m[31m[1mssssssssssss[37m[0m[1myNMMMy[0m[31m[1msssssss+
.ssssssss[37m[0m[1mdMMMNh[0m[31m[1mssssssssss[37m[0m[1mhNMMMd[0m[31m[1mssssssss.
 /ssssssss[37m[0m[1mhNMMM[0m[31m[1myh[37m[0m[1mhyyyyhdNMMMNh[0m[31m[1mssssssss/
  +sssssssss[37m[0m[1mdm[0m[31m[1myd[37m[0m[1mMMMMMMMMddddy[0m[31m[1mssssssss+
   /sssssssssss[37m[0m[1mhdmNNNNmyNMMMMh[0m[31m[1mssssss/
    .ossssssssssssssssss[37m[0m[1mdMMMNy[0m[31m[1msssso.
      -+sssssssssssssssss[37m[0m[1myyy[0m[31m[1mssss+-
        `:+ssssssssssssssssss+:`
            .-/+oossssoo+/-.[0m
[20A[9999999D





















[?25h[?7h